dim_installation_id,host_name
b134be3abe8d3e0bc86c4cbedc1b2f66,miyu.prod.us-east-1.gitlab.falco.ai.aws.dev
fe6c5df1bcfd610b4d18f8142ccbcada,miyu.gamma.us-east-1.gitlab.falco.ai.aws.dev
27dce970e761603536c6378ad16b98b1,miyu.beta.us-east-1.gitlab.falco.ai.aws.dev
e8461c66d18b486f2ec336881f0cffdd,miyu.gamma.us-east-1.gitlab.falco.ai.aws.dev
67054080ea3f1181cf5f78f255051057,miyu.prod.us-east-1.gitlab.falco.ai.aws.dev
9296f0b93333d649e8caa62987b900e7,miyu.beta.us-east-1.gitlab.falco.ai.aws.dev
d6096868155fdedf2e176382ab9743ce,miyu.gamma.us-east-1.gitlab.falco.ai.aws.dev
3c44388053cc4777af7e4eb291c0e21e,miyu.beta.us-east-1.gitlab.falco.ai.aws.dev
996561c52eb12f4832f69c824429bd9d,miyu.gamma.us-east-1.gitlab.falco.ai.aws.dev
ee37e22b94d0eb0663a92c7555dd0715,miyu.beta.us-east-1.gitlab.falco.ai.aws.dev
da051588a15ad43c9afb51ccadc11566,miyu.prod.us-east-1.gitlab.falco.ai.aws.dev
8b52effca410f0a380b0fcffaa1260e7,gitlab.com
ba2f713aeeb3ac593e237f11539212a3,staging.gitlab.com
243adc51e7fba12b3f97d629d1af0435,geo1.gitlab.com
af808521398a16c3e2f5117228cfdaac,dr.gitlab.com
c79bf1e881c7bf48b6ab662f284bcd1f,localhost